[X] 90s
[ ] apples
[X] Base
[X] BaseUK
[X] Box
[X] c-admin
[X] CAHe1
[X] CAHe2
[X] CAHe3
[X] CAHe4
[X] CAHe5
[X] CAHe6
[X] CAHgrognards
[X] Canadian
[X] c-anime
[X] c-antisocial
[X] c-derps
[X] c-doctorwho
[X] c-equinity
[X] c-eurovision
[X] c-fim
[X] c-gamegrumps
[X] c-golby
[X] c-guywglasses
[X] c-homestuck
[X] c-imgur
[X] c-khaos
[X] c-ladies
[X] c-mrman
[X] c-neindy
[X] c-nobilis
[X] c-northernlion
[X] c-prtg
[X] crabs
[X] c-ragingpsyfag
[X] c-rpanons
[X] c-rt
[X] c-socialgamer
[X] c-sodomydog
[X] c-stupid
[X] c-tg
[X] c-vewysewious
[X] c-vidya
[X] c-xkcd
[X] fantasy
[X] food
[X] GOT
[X] greenbox
[X] HACK
[X] hillary
[X] HOCAH
[X] Image1
[X] matrimony
[X] misprint
[X] NSFH
[X] PAX2015
[X] PAXE2013
[X] PAXE2014
[X] PAXEP2014
[X] PAXP2013
[X] PAXPP2014
[X] period
[X] reject
[X] reject2
[X] science
[X] trumpbag
[X] trumpvote
[X] weed
[X] www
[X] xmas2012
[X] xmas2013
